[gd_scene load_steps=2 format=3 uid="uid://gtlb8cwlca4s"]

[sub_resource type="StandardMaterial3D" id="StandardMaterial3D_asaas"]
albedo_color = Color(0.869916, 0.611731, 0.0569386, 1)
emission_enabled = true
emission = Color(0.870588, 0.611765, 0.0588235, 1)

[node name="PrettyWindow" type="CSGCombiner3D"]
operation = 2

[node name="CSGCylinder3D" type="CSGCylinder3D" parent="."]
transform = Transform3D(1, 0, 0, 0, -4.37114e-08, -1, 0, 1, -4.37114e-08, 0, 1.8, 0)
height = 1.0
sides = 10
smooth_faces = false

[node name="CSGBox3D" type="CSGBox3D" parent="."]
transform = Transform3D(1, 0, 0, 0, 1, 0, 0, 0, 1, 0, 1.3, 0)

[node name="CSGCylinder3D2" type="CSGCylinder3D" parent="."]
transform = Transform3D(1, 0, 0, 0, -4.37114e-08, -1, 0, 1, -4.37114e-08, 0, 1.8, 0)
radius = 0.4
height = 1.01532
sides = 16
smooth_faces = false
material = SubResource("StandardMaterial3D_asaas")

[node name="CSGBox3D2" type="CSGBox3D" parent="."]
transform = Transform3D(0.999957, 0, 0, 0, -4.37114e-08, -1, 0, 0.999957, -4.37088e-08, 0, 1.35278, -0.00640437)
size = Vector3(0.8, 1.01905, 0.890234)
material = SubResource("StandardMaterial3D_asaas")

[node name="Marker3D" type="Marker3D" parent="."]
