[gd_scene load_steps=7 format=3 uid="uid://c56oyitryj6gt"]

[ext_resource type="Script" path="res://elements/death_sphere.gd" id="1_8hqjv"]
[ext_resource type="Texture2D" uid="uid://canxr2iltea1e" path="res://textures/halo2.png" id="2_ed8sb"]

[sub_resource type="SphereShape3D" id="SphereShape3D_fr5ln"]

[sub_resource type="Animation" id="Animation_pxjin"]
resource_name = "loot_spin"
length = 4.0
loop_mode = 1
tracks/0/type = "rotation_3d"
tracks/0/imported = false
tracks/0/enabled = true
tracks/0/path = NodePath("Mesh")
tracks/0/interp = 1
tracks/0/loop_wrap = true
tracks/0/keys = PackedFloat32Array(0.0857436, 1, -0.176608, 0.333928, 0.423315, 0.823472, 0.986051, 1, -0.424209, -0.34616, 0.174449, 0.818405, 1.92923, 1, 0.423315, 0.823472, 0.176608, -0.333928, 2.97959, 1, 0.174448, 0.818405, 0.424209, 0.34616, 4.02995, 1, -0.176608, 0.333928, 0.423315, 0.823472)

[sub_resource type="AnimationLibrary" id="AnimationLibrary_v4yyb"]
_data = {
"loot_spin": SubResource("Animation_pxjin")
}

[sub_resource type="StandardMaterial3D" id="StandardMaterial3D_5j1xt"]
albedo_color = Color(0, 0.952941, 0.556863, 1)
emission_enabled = true
emission = Color(0, 0.952941, 0.556863, 1)

[node name="Loot" type="StaticBody3D"]
collision_layer = 256
collision_mask = 256
script = ExtResource("1_8hqjv")

[node name="CollisionShape3D" type="CollisionShape3D" parent="."]
transform = Transform3D(1, 0, 0, 0, 1, 0, 0, 0, 1, 0, 0.29509, 0)
shape = SubResource("SphereShape3D_fr5ln")

[node name="AnimationPlayer" type="AnimationPlayer" parent="."]
libraries = {
"": SubResource("AnimationLibrary_v4yyb")
}
autoplay = "loot_spin"
speed_scale = 0.5

[node name="Mesh" type="CSGBox3D" parent="."]
transform = Transform3D(0.330535, -0.810079, 0.48427, 0.579227, 0.579228, 0.573577, -0.745145, 0.0909151, 0.660675, 0, 0.29509, 0)
size = Vector3(0.3, 0.3, 0.3)
material = SubResource("StandardMaterial3D_5j1xt")

[node name="OmniLight3D" type="OmniLight3D" parent="."]
transform = Transform3D(1, 0, 0, 0, 1, 0, 0, 0, 1, 0, 0.29509, 0)
light_color = Color(0, 0.952941, 0.556863, 1)
light_energy = 0.5
omni_range = 2.0

[node name="HaloSprite" type="Sprite3D" parent="."]
transform = Transform3D(0.25, 0, 0, 0, 0.25, 0, 0, 0, 0.25, 0, 0.28169, 0)
modulate = Color(0, 0.952941, 0.556863, 1)
billboard = 1
texture = ExtResource("2_ed8sb")

[node name="Marker3D" type="Marker3D" parent="."]
