[gd_scene load_steps=9 format=3 uid="uid://v0xmup4utd4t"]

[ext_resource type="Script" path="res://elements/land_particles.gd" id="1_sgoej"]
[ext_resource type="Texture2D" uid="uid://dq4r7b3e0140u" path="res://textures/dust.png" id="2_ysaom"]
[ext_resource type="AudioStream" uid="uid://dxujt2u8gc220" path="res://prop/sound/damage/fallbig.ogg" id="3_diauc"]

[sub_resource type="Curve" id="Curve_f67tp"]
_data = [Vector2(0, 1), 0.0, 0.0, 0, 0, Vector2(0.99999, 1), 0.0, 0.0, 0, 0]
point_count = 2

[sub_resource type="CurveTexture" id="CurveTexture_njtey"]
curve = SubResource("Curve_f67tp")

[sub_resource type="ParticleProcessMaterial" id="ParticleProcessMaterial_tdvqd"]
emission_shape = 6
emission_ring_axis = Vector3(0, 0, 1)
emission_ring_height = 0.1
emission_ring_radius = 0.3
emission_ring_inner_radius = 0.1
direction = Vector3(0, 0, 0)
gravity = Vector3(0, -0.2, 0)
radial_accel_min = 0.399998
radial_accel_max = 0.399998
alpha_curve = SubResource("CurveTexture_njtey")

[sub_resource type="StandardMaterial3D" id="StandardMaterial3D_dgjjf"]
transparency = 1
cull_mode = 2
vertex_color_use_as_albedo = true
albedo_texture = ExtResource("2_ysaom")
albedo_texture_force_srgb = true
texture_filter = 0
texture_repeat = false
disable_receive_shadows = true

[sub_resource type="PlaneMesh" id="PlaneMesh_x6b3n"]
material = SubResource("StandardMaterial3D_dgjjf")
size = Vector2(0.5, 0.5)
orientation = 2

[node name="LandParticles" type="Node3D"]
script = ExtResource("1_sgoej")

[node name="GPUParticles3D" type="GPUParticles3D" parent="."]
transform = Transform3D(1, 0, 0, 0, -4.37114e-08, 1, 0, -1, -4.37114e-08, 0, 0.103126, 0)
amount = 9
lifetime = 0.6
interp_to_end = 1.0
speed_scale = 1.3
explosiveness = 1.0
visibility_aabb = AABB(-0.5, -0.4, -0.5, 1, 0.8, 1)
process_material = SubResource("ParticleProcessMaterial_tdvqd")
draw_pass_1 = SubResource("PlaneMesh_x6b3n")

[node name="AudioStreamPlayer3D" type="AudioStreamPlayer3D" parent="."]
stream = ExtResource("3_diauc")
volume_db = -15.0
unit_size = 50.0
autoplay = true

[connection signal="finished" from="GPUParticles3D" to="." method="_on_gpu_particles_3d_finished"]
