[gd_resource type="StandardMaterial3D" load_steps=2 format=3 uid="uid://lm4387sbl816"]

[ext_resource type="Texture2D" uid="uid://cl1c284d7pban" path="res://textures/checker_tex.png" id="1_ap0jl"]

[resource]
albedo_color = Color(1, 1, 0.4, 1)
albedo_texture = ExtResource("1_ap0jl")
uv1_scale = Vector3(0.5, 0.5, 0.5)
uv1_triplanar = true
texture_filter = 0
