[gd_scene load_steps=2 format=3 uid="uid://dxwbd01ckague"]

[ext_resource type="Script" path="res://ui/bonfire_menu.gd" id="1_o42x8"]

[node name="BonfireMenu" type="Control"]
auto_translate_mode = 1
layout_mode = 3
anchors_preset = 15
anchor_right = 1.0
anchor_bottom = 1.0
grow_horizontal = 2
grow_vertical = 2
script = ExtResource("1_o42x8")

[node name="Title" type="Label" parent="."]
auto_translate_mode = 1
layout_mode = 1
anchors_preset = -1
anchor_left = 0.333333
anchor_top = 0.246914
anchor_right = 0.555833
anchor_bottom = 0.297802
offset_right = -0.320007
offset_bottom = -0.975998
text = "Bonfire name"
vertical_alignment = 1
metadata/_edit_use_anchors_ = true

[node name="ItemList" type="ItemList" parent="."]
layout_mode = 1
anchors_preset = -1
anchor_left = 0.333333
anchor_top = 0.296296
anchor_right = 0.555556
anchor_bottom = 0.790123
grow_horizontal = 2
grow_vertical = 2
allow_search = false
item_count = 1
item_0/text = "TestItem"
metadata/_edit_use_anchors_ = true

[node name="Label" type="Label" parent="."]
layout_mode = 1
anchors_preset = -1
anchor_left = 0.569444
anchor_top = 0.296296
anchor_right = 0.778056
anchor_bottom = 0.493333
offset_right = -0.32
offset_bottom = 0.32
text = "W/S: change selection
Space: accept
Esc: exit
"
metadata/_edit_use_anchors_ = true

[connection signal="item_activated" from="ItemList" to="." method="_on_item_list_item_activated"]
